{
  "declarations": [
    {
      "url": "https://sante.sec.gouv.sn/Actualites/coronavirus-communiqu%C3%A9-de-presse-n%C2%B0408-du-mardi-13-avril-2021-du-minist%C3%A8re-de-la-sant%C3%A9-et",
      "date_publication": "2021/4/13",
      "nombre_tests": "999",
      "nombre_cas_positifs": "80",
      "nombre_cas_contacts": "13",
      "nombre_cas_importes": "0",
      "nombre_cas_graves": "14",
      "nombre_patients": "26",
      "nombre_deces": "14",
      "villes": [
        {
          "nom": "Dakar",
          "localites": [
            {
              "nom": "Diamniadio",
              "cas": "2"
            },
            {
              "nom": "KeurMassar",
              "cas": "2"
            },
            {
              "nom": "Plateau",
              "cas": "2"
            },
            {
              "nom": "GueuleTap\u00c3\u00a9e",
              "cas": "1"
            },
            {
              "nom": "M\u00c3\u00a9dina",
              "cas": "1"
            },
            {
              "nom": "SicapKarack",
              "cas": "1"
            }
          ]
        },
        {
          "nom": "Kolda",
          "localites": [
            {
              "nom": "Kolda",
              "cas": "2"
            }
          ]
        },
        {
          "nom": "Matam",
          "localites": [
            {
              "nom": "Matam",
              "cas": "2"
            }
          ]
        },
        {
          "nom": " v\u00c3\u00a9lingara",
          "localites": [
            {
              "nom": "V\u00c3\u00a9lingara",
              "cas": "2"
            }
          ]
        }
      ],
      "is_loaded": true,
      "nom": "Declaration du 2021 4 13"
    },
    {
      "date_publication": "2021/4/24",
      "nombre_tests": "1638",
      "nombre_cas_positifs": "60",
      "nombre_cas_contacts": "28",
      "nombre_cas_importes": "0",
      "nombre_cas_graves": "9",
      "nombre_patients": "29",
      "nombre_deces": "2",
      "villes": [
        {
          "nom": "Dakar",
          "localites": [
            {
              "nom": "Maristes",
              "cas": "3"
            },
            {
              "nom": "Almadies",
              "cas": "2"
            },
            {
              "nom": "Ouakam",
              "cas": "2"
            },
            {
              "nom": "ParcellesAssainies",
              "cas": "2"
            },
            {
              "nom": "Camb\u00e9r\u00e8ne",
              "cas": "2"
            },
            {
              "nom": "Diamniadio",
              "cas": "2"
            },
            {
              "nom": "FannHock",
              "cas": "2"
            },
            {
              "nom": "Grand-Dakar",
              "cas": "2"
            },
            {
              "nom": "Gu\u00e9diawaye",
              "cas": "2"
            },
            {
              "nom": "MbayeFall",
              "cas": "2"
            },
            {
              "nom": "Libert\u00e96",
              "cas": "2"
            },
            {
              "nom": "Mamelles",
              "cas": "2"
            },
            {
              "nom": "M\u00e9dina",
              "cas": "2"
            },
            {
              "nom": "OuestFoire",
              "cas": "2"
            },
            {
              "nom": "Plateau",
              "cas": "2"
            },
            {
              "nom": "Patted\u2019oie",
              "cas": "2"
            },
            {
              "nom": "Pikine",
              "cas": "2"
            }
          ]
        },
        {
          "nom": "V\u00e9lingara",
          "localites": [
            {
              "nom": "V\u00e9lingara",
              "cas": "3"
            }
          ]
        },
        {
          "nom": "Thi\u00e8s",
          "localites": [
            {
              "nom": "Thi\u00e8s",
              "cas": "2"
            }
          ]
        },
        {
          "nom": "Matam",
          "localites": [
            {
              "nom": "Matam",
              "cas": "2"
            }
          ]
        },
        {
          "nom": " richard-toll",
          "localites": [
            {
              "nom": "Richard-Toll",
              "cas": "2"
            }
          ]
        }
      ],
      "is_loaded": true,
      "nom": "Declaration du 2021 4 24"
    },
    {
      "date_publication": "2021/4/26",
      "nom": "Declaration du 2021 4 26",
      "url": 1386634130205642757,
      "nombre_tests": 1194,
      "nombre_cas_positifs": 81,
      "nombre_cas_contacts": 10,
      "nombre_cas_importes": 0,
      "nombre_patients": 43,
      "nombre_cas_graves": 11,
      "nombre_deces": 2,
      "villes": [
        {
          "nom": "Dakar",
          "localites": [
            {
              "nom": "Libert\u00e9 6",
              "cas": 8
            },
            {
              "nom": "Yoff",
              "cas": 2
            },
            {
              "nom": "Cit\u00e9 mourtada",
              "cas": 2
            },
            {
              "nom": "Fass",
              "cas": 2
            },
            {
              "nom": "Gu\u00e9diawaye",
              "cas": 2
            },
            {
              "nom": "Mamelles",
              "cas": 2
            },
            {
              "nom": "M\u00e9dina",
              "cas": 2
            },
            {
              "nom": "Point-e",
              "cas": 2
            },
            {
              "nom": "S\u00e9bikotane",
              "cas": 2
            }
          ]
        },
        {
          "nom": "Thi\u00e8s",
          "localites": [
            {
              "nom": "Thi\u00e8s",
              "cas": 2
            }
          ]
        },
        {
          "nom": "Diourbel",
          "localites": [
            {
              "nom": "Diourbel",
              "cas": 1
            }
          ]
        },
        {
          "nom": "K\u00e9dougou",
          "localites": [
            {
              "nom": "K\u00e9dougou",
              "cas": 1
            }
          ]
        },
        {
          "nom": "Ourossogui",
          "localites": [
            {
              "nom": "Ourossogui",
              "cas": 1
            }
          ]
        }
      ],
      "is_loaded": true
    },
    {
      "date_publication": "2021/4/30",
      "nombre_tests": "1280",
      "nombre_cas_positifs": "49",
      "nombre_cas_contacts": "14",
      "nombre_cas_importes": "0",
      "nombre_cas_graves": "11",
      "nombre_patients": "62",
      "nombre_deces": "0",
      "villes": [
        {
          "nom": "Dakar",
          "localites": [
            {
              "nom": "Gu\u00e9diawaye",
              "cas": "4"
            },
            {
              "nom": "Almadies",
              "cas": "2"
            },
            {
              "nom": "Keurgorgui",
              "cas": "2"
            },
            {
              "nom": "Scaturbam",
              "cas": "2"
            },
            {
              "nom": "Cit\u00e9safco",
              "cas": "2"
            },
            {
              "nom": "Colobane",
              "cas": "2"
            },
            {
              "nom": "Dieuppeul",
              "cas": "2"
            },
            {
              "nom": "Fass",
              "cas": "2"
            },
            {
              "nom": "Hamo",
              "cas": "2"
            },
            {
              "nom": "Hlm-grand-m\u00e9dine",
              "cas": "2"
            },
            {
              "nom": "Hlm-grand-yoff",
              "cas": "2"
            },
            {
              "nom": "Keurmassar",
              "cas": "2"
            },
            {
              "nom": "Libert\u00e96",
              "cas": "2"
            },
            {
              "nom": "Malika",
              "cas": "2"
            },
            {
              "nom": "Maristes",
              "cas": "2"
            },
            {
              "nom": "Ouestfoire",
              "cas": "2"
            },
            {
              "nom": "Sicapbaobab",
              "cas": "2"
            }
          ]
        },
        {
          "nom": "Matam;",
          "localites": [
            {
              "nom": "Matam;",
              "cas": "3"
            }
          ]
        },
        {
          "nom": "Saint louis",
          "localites": [
            {
              "nom": "Saintlouis",
              "cas": "2"
            }
          ]
        },
        {
          "nom": "Coki",
          "localites": [
            {
              "nom": "Coki",
              "cas": "1"
            }
          ]
        },
        {
          "nom": "Oussouye",
          "localites": [
            {
              "nom": "Oussouye",
              "cas": "1"
            }
          ]
        },
        {
          "nom": "Ziguinchor",
          "localites": [
            {
              "nom": "Ziguinchor",
              "cas": "1"
            }
          ]
        }
      ],
      "is_loaded": true,
      "nom": "Declaration du 2021 4 30"
    },
    {
      "date_publication": "2021/4/29",
      "nombre_tests": "1309",
      "nombre_cas_positifs": "46",
      "nombre_cas_contacts": "17",
      "nombre_cas_importes": "0",
      "nombre_cas_graves": "11",
      "nombre_patients": "30",
      "nombre_deces": "0",
      "villes": [
        {
          "nom": "Dakar",
          "localites": [
            {
              "nom": "Libert\u00e95",
              "cas": "3"
            },
            {
              "nom": "Maristes",
              "cas": "5"
            },
            {
              "nom": "Centenaire",
              "cas": "5"
            },
            {
              "nom": "Cit\u00e9isra",
              "cas": "5"
            },
            {
              "nom": "Diamniadio",
              "cas": "5"
            },
            {
              "nom": "Fassdelorme",
              "cas": "5"
            },
            {
              "nom": "Gibraltar",
              "cas": "5"
            },
            {
              "nom": "Grand-yoff",
              "cas": "5"
            },
            {
              "nom": "Jaxaay",
              "cas": "5"
            },
            {
              "nom": "Keurmassar",
              "cas": "5"
            },
            {
              "nom": "Libert\u00e93",
              "cas": "3"
            },
            {
              "nom": "Libert\u00e96",
              "cas": "3"
            },
            {
              "nom": "Mamelles",
              "cas": "5"
            },
            {
              "nom": "M\u00e9dina",
              "cas": "5"
            },
            {
              "nom": "Mermoz",
              "cas": "5"
            },
            {
              "nom": "Nordfoire",
              "cas": "5"
            },
            {
              "nom": "Ouakam",
              "cas": "5"
            },
            {
              "nom": "Captage",
              "cas": "5"
            }
          ]
        },
        {
          "nom": "Bignona",
          "localites": [
            {
              "nom": "Bignona",
              "cas": "6"
            }
          ]
        },
        {
          "nom": "Matam",
          "localites": [
            {
              "nom": "Matam",
              "cas": "6"
            }
          ]
        },
        {
          "nom": "Saly",
          "localites": [
            {
              "nom": "Saly",
              "cas": "6"
            }
          ]
        },
        {
          "nom": "Sibassor",
          "localites": [
            {
              "nom": "Sibassor",
              "cas": "6"
            }
          ]
        },
        {
          "nom": "Ziguinchor",
          "localites": [
            {
              "nom": "Ziguinchor",
              "cas": "6"
            }
          ]
        }
      ],
      "is_loaded": true,
      "nom": "Declaration du 2021 4 29"
    },
    {
      "date_publication": "2021/4/28",
      "nom": "Declaration du 2021 4 28",
      "url": 1387353568487874560,
      "nombre_tests": 1231,
      "nombre_cas_positifs": 56,
      "nombre_cas_contacts": 18,
      "nombre_cas_importes": 0,
      "nombre_patients": 38,
      "nombre_cas_graves": 10,
      "nombre_deces": 10,
      "villes": [
        {
          "nom": "Dakar",
          "localites": [
            {
              "nom": "Libert\u00e9 6",
              "cas": 3
            },
            {
              "nom": "Yoff",
              "cas": 6
            },
            {
              "nom": "Maristes",
              "cas": 2
            },
            {
              "nom": "Grand-yoff",
              "cas": 2
            },
            {
              "nom": "Keur massar",
              "cas": 2
            },
            {
              "nom": "Yeumbeul",
              "cas": 2
            },
            {
              "nom": "Almadies",
              "cas": 2
            },
            {
              "nom": "Bopp",
              "cas": 2
            },
            {
              "nom": "Camb\u00e9r\u00e8ne",
              "cas": 2
            },
            {
              "nom": "Cit\u00e9 asecna",
              "cas": 2
            },
            {
              "nom": "Grand- dakar",
              "cas": 2
            },
            {
              "nom": "Mermoz",
              "cas": 2
            },
            {
              "nom": "Ndiakhirate",
              "cas": 2
            },
            {
              "nom": "Ngor",
              "cas": 2
            },
            {
              "nom": "Niary-tally",
              "cas": 2
            },
            {
              "nom": "Nord-foire",
              "cas": 2
            },
            {
              "nom": "Ouakam",
              "cas": 2
            },
            {
              "nom": "Ouest-foire",
              "cas": 2
            },
            {
              "nom": "Parcelles assainies",
              "cas": 2
            },
            {
              "nom": "Pikine",
              "cas": 2
            },
            {
              "nom": "Point-e",
              "cas": 2
            },
            {
              "nom": "Captage",
              "cas": 2
            }
          ]
        },
        {
          "nom": "Ourossogui",
          "localites": [
            {
              "nom": "Ourossogui",
              "cas": 2
            }
          ]
        },
        {
          "nom": "Kolda",
          "localites": [
            {
              "nom": "Kolda",
              "cas": 1
            }
          ]
        },
        {
          "nom": "Pout",
          "localites": [
            {
              "nom": "Pout",
              "cas": 1
            }
          ]
        }
      ],
      "is_loaded": true
    },
    {
      "date_publication": "2021/4/27",
      "nom": "Declaration du 2021 4 27",
      "url": 1386990807597654017,
      "nombre_tests": 880,
      "nombre_cas_positifs": 27,
      "nombre_cas_contacts": 7,
      "nombre_cas_importes": 0,
      "nombre_patients": 49,
      "nombre_cas_graves": 9,
      "nombre_deces": 2,
      "villes": [
        {
          "nom": "Dakar",
          "localites": [
            {
              "nom": "Point-e",
              "cas": 2
            },
            {
              "nom": "Yoff",
              "cas": 2
            }
          ]
        },
        {
          "nom": "Matam;",
          "localites": [
            {
              "nom": "Matam;",
              "cas": 7
            }
          ]
        },
        {
          "nom": "Bakel",
          "localites": [
            {
              "nom": "Bakel",
              "cas": 2
            }
          ]
        },
        {
          "nom": "Kanel",
          "localites": [
            {
              "nom": "Kanel",
              "cas": 1
            }
          ]
        },
        {
          "nom": "Saint-louis",
          "localites": [
            {
              "nom": "Saint-louis",
              "cas": 1
            }
          ]
        }
      ],
      "is_loaded": true
    }
  ]
}